#
BP
#
H Pd
-3. -4.
#
4 1
#type centralElemnt  eta    Rs   Rcut
G1         H  H      0.05  0.0   6.      
G1         H  Pd     160.  0.0   6.
G1         Pd H      0.05  0.0   6.
G1         Pd Pd     400.  6.0   6.
#type centralElemnt  eta   zeta  gamma  thetas    Rcut
G2         Pd Pd Pd  0.02  100.0   1.0      0.5   6.
